digraph "Nova.main"
{
  edge [fontname="Helvetica",fontsize="10",labelfontname="Helvetica",labelfontsize="10"];
  node [fontname="Helvetica",fontsize="10",shape=record];
  rankdir="LR";
  Node1 [label="Nova.main",height=0.2,width=0.4,color="black", fillcolor="grey75", style="filled", fontcolor="black"];
  Node1 -> Node2 [color="midnightblue",fontsize="10",style="solid"];
  Node2 [label="Nova.Nova",height=0.2,width=0.4,color="black", fillcolor="white", style="filled",URL="$class_nova.html#afec0a2b5f0406de7b7d5f9dda6bdad50"];
}
